<svg width="167" height="154" viewBox="0 0 167 154" fill="none" xmlns="http://www.w3.org/2000/svg">
<g opacity="0.8">
<line x1="18.9305" y1="87.71" x2="18.9305" y2="41.5581" stroke="#054F77" stroke-width="0.569965"/>
<line x1="147.713" y1="87.71" x2="147.713" y2="43.668" stroke="#054F77" stroke-width="0.569965"/>
<line x1="83.0516" y1="118.274" x2="83.0516" y2="19.358" stroke="#054F77" stroke-width="0.569965"/>
<path d="M63.8341 132.318L29.8477 112.562" stroke="#054F77" stroke-width="0.569965"/>
<path d="M138.306 112.346L101.499 132.318" stroke="#054F77" stroke-width="0.569965"/>
<path d="M63.8271 17.1185L24.0906 35.4126" stroke="#054F77" stroke-width="0.569965"/>
<path d="M140.42 35.9313L101.508 17.0494" stroke="#054F77" stroke-width="0.569965"/>
<path d="M38.2257 116.05L38.2257 95.8299C38.2257 95.3027 37.9094 94.8282 37.4269 94.6173L19.7719 87.0512L19.7719 108.141L38.2257 116.05ZM19.7719 108.141L-4.86374e-05 116.05L-4.68697e-05 95.8299C-0.000276438 95.5718 0.075299 95.3193 0.2173 95.1037C0.359301 94.8881 0.561478 94.719 0.798741 94.6173L19.7719 87.0512L19.7719 108.141Z" fill="url(#paint0_linear_2811_3783)"/>
<path d="M38.2257 95.4485V115.669C38.2257 116.196 37.9094 116.67 37.4269 116.881L19.7719 124.447V103.357L38.2257 95.4485ZM19.7719 103.357L-4.86374e-05 95.4485V115.669C-0.000278229 115.927 0.0752972 116.179 0.217298 116.395C0.359299 116.61 0.561476 116.78 0.798739 116.881L19.7719 124.447V103.357Z" fill="#83DDDD" fill-opacity="0.8"/>
<path d="M38.2257 95.4485V115.669C38.2257 116.196 37.9094 116.67 37.4269 116.881L19.7719 124.447V103.357L38.2257 95.4485ZM19.7719 103.357L-4.86374e-05 95.4485V115.669C-0.000278229 115.927 0.0752972 116.179 0.217298 116.395C0.359299 116.61 0.561476 116.78 0.798739 116.881L19.7719 124.447V103.357Z" fill="url(#paint1_linear_2811_3783)"/>
<path d="M38.2257 58.1675L38.2257 37.9474C38.2257 37.4201 37.9094 36.9456 37.4269 36.7347L19.7719 29.1686L19.7719 50.2587L38.2257 58.1675ZM19.7719 50.2587L-4.86374e-05 58.1675L-4.68697e-05 37.9474C-0.000276438 37.6892 0.075299 37.4367 0.2173 37.2211C0.359301 37.0055 0.561478 36.8364 0.798741 36.7347L19.7719 29.1686L19.7719 50.2587Z" fill="url(#paint2_linear_2811_3783)"/>
<path d="M38.2257 37.5659V57.786C38.2257 58.3133 37.9094 58.7878 37.4269 58.9987L19.7719 66.5648V45.4747L38.2257 37.5659ZM19.7719 45.4747L-4.86374e-05 37.5659V57.786C-0.000278229 58.0442 0.0752972 58.2967 0.217298 58.5123C0.359299 58.7279 0.561476 58.897 0.798739 58.9987L19.7719 66.5648V45.4747Z" fill="#83DDDD" fill-opacity="0.8"/>
<path d="M38.2257 37.5659V57.786C38.2257 58.3133 37.9094 58.7878 37.4269 58.9987L19.7719 66.5648V45.4747L38.2257 37.5659ZM19.7719 45.4747L-4.86374e-05 37.5659V57.786C-0.000278229 58.0442 0.0752972 58.2967 0.217298 58.5123C0.359299 58.7279 0.561476 58.897 0.798739 58.9987L19.7719 66.5648V45.4747Z" fill="url(#paint3_linear_2811_3783)"/>
<path d="M166.673 116.05L166.673 95.8299C166.673 95.3027 166.357 94.8282 165.874 94.6173L148.219 87.0512L148.219 108.141L166.673 116.05ZM148.219 108.141L128.447 116.05L128.447 95.8299C128.447 95.5718 128.523 95.3193 128.665 95.1037C128.807 94.8881 129.009 94.719 129.246 94.6173L148.219 87.0512L148.219 108.141Z" fill="url(#paint4_linear_2811_3783)"/>
<path d="M166.673 95.4485V115.669C166.673 116.196 166.357 116.67 165.874 116.881L148.219 124.447V103.357L166.673 95.4485ZM148.219 103.357L128.447 95.4485V115.669C128.447 115.927 128.523 116.179 128.665 116.395C128.807 116.61 129.009 116.78 129.246 116.881L148.219 124.447V103.357Z" fill="#83DDDD" fill-opacity="0.8"/>
<path d="M166.673 95.4485V115.669C166.673 116.196 166.357 116.67 165.874 116.881L148.219 124.447V103.357L166.673 95.4485ZM148.219 103.357L128.447 95.4485V115.669C128.447 115.927 128.523 116.179 128.665 116.395C128.807 116.61 129.009 116.78 129.246 116.881L148.219 124.447V103.357Z" fill="url(#paint5_linear_2811_3783)"/>
<path d="M166.673 58.1675L166.673 37.9474C166.673 37.4201 166.357 36.9456 165.874 36.7347L148.219 29.1686L148.219 50.2587L166.673 58.1675ZM148.219 50.2587L128.447 58.1675L128.447 37.9474C128.447 37.6892 128.523 37.4367 128.665 37.2211C128.807 37.0055 129.009 36.8364 129.246 36.7347L148.219 29.1686L148.219 50.2587Z" fill="url(#paint6_linear_2811_3783)"/>
<path d="M166.673 37.5659V57.786C166.673 58.3133 166.357 58.7878 165.874 58.9987L148.219 66.5648V45.4747L166.673 37.5659ZM148.219 45.4747L128.447 37.5659V57.786C128.447 58.0442 128.523 58.2967 128.665 58.5123C128.807 58.7279 129.009 58.897 129.246 58.9987L148.219 66.5648V45.4747Z" fill="#83DDDD" fill-opacity="0.8"/>
<path d="M166.673 37.5659V57.786C166.673 58.3133 166.357 58.7878 165.874 58.9987L148.219 66.5648V45.4747L166.673 37.5659ZM148.219 45.4747L128.447 37.5659V57.786C128.447 58.0442 128.523 58.2967 128.665 58.5123C128.807 58.7279 129.009 58.897 129.246 58.9987L148.219 66.5648V45.4747Z" fill="url(#paint7_linear_2811_3783)"/>
<path d="M102.448 87.0518L102.448 66.8316C102.448 66.3044 102.132 65.8299 101.65 65.619L83.9946 58.0529L83.9946 79.143L102.448 87.0518ZM83.9946 79.143L64.2226 87.0518L64.2226 66.8316C64.2224 66.5735 64.298 66.321 64.44 66.1054C64.582 65.8898 64.7841 65.7207 65.0214 65.619L83.9946 58.0529L83.9946 79.143Z" fill="url(#paint8_linear_2811_3783)"/>
<path d="M102.448 66.4502V86.6703C102.448 87.1976 102.132 87.6721 101.65 87.883L83.9946 95.4491V74.359L102.448 66.4502ZM83.9946 74.359L64.2226 66.4502V86.6703C64.2224 86.9285 64.298 87.181 64.44 87.3966C64.582 87.6121 64.7841 87.7813 65.0214 87.883L83.9946 95.4491V74.359Z" fill="#83DDDD" fill-opacity="0.8"/>
<path d="M102.448 66.4502V86.6703C102.448 87.1976 102.132 87.6721 101.65 87.883L83.9946 95.4491V74.359L102.448 66.4502ZM83.9946 74.359L64.2226 66.4502V86.6703C64.2224 86.9285 64.298 87.181 64.44 87.3966C64.582 87.6121 64.7841 87.7813 65.0214 87.883L83.9946 95.4491V74.359Z" fill="url(#paint9_linear_2811_3783)"/>
<path d="M102.448 145.049L102.448 124.829C102.448 124.302 102.132 123.827 101.65 123.616L83.9946 116.05L83.9946 137.14L102.448 145.049ZM83.9946 137.14L64.2226 145.049L64.2226 124.829C64.2224 124.571 64.298 124.318 64.44 124.103C64.582 123.887 64.7841 123.718 65.0214 123.616L83.9946 116.05L83.9946 137.14Z" fill="url(#paint10_linear_2811_3783)"/>
<path d="M102.448 124.448V144.668C102.448 145.195 102.132 145.67 101.65 145.881L83.9946 153.447V132.357L102.448 124.448ZM83.9946 132.357L64.2226 124.448V144.668C64.2224 144.926 64.298 145.179 64.44 145.394C64.582 145.61 64.7841 145.779 65.0214 145.881L83.9946 153.447V132.357Z" fill="#83DDDD" fill-opacity="0.8"/>
<path d="M102.448 124.448V144.668C102.448 145.195 102.132 145.67 101.65 145.881L83.9946 153.447V132.357L102.448 124.448ZM83.9946 132.357L64.2226 124.448V144.668C64.2224 144.926 64.298 145.179 64.44 145.394C64.582 145.61 64.7841 145.779 65.0214 145.881L83.9946 153.447V132.357Z" fill="url(#paint11_linear_2811_3783)"/>
<path d="M102.448 29.054L102.448 8.83384C102.448 8.30659 102.132 7.83207 101.65 7.62117L83.9946 0.0550957L83.9946 21.1452L102.448 29.054ZM83.9946 21.1452L64.2226 29.054L64.2226 8.83384C64.2224 8.5757 64.298 8.32317 64.44 8.10759C64.582 7.89201 64.7841 7.72287 65.0214 7.62116L83.9946 0.0550957L83.9946 21.1452Z" fill="url(#paint12_linear_2811_3783)"/>
<path d="M102.448 8.45264V28.6727C102.448 29.2 102.132 29.6745 101.65 29.8854L83.9946 37.4515V16.3614L102.448 8.45264ZM83.9946 16.3614L64.2226 8.45264V28.6727C64.2224 28.9309 64.298 29.1834 64.44 29.399C64.582 29.6146 64.7841 29.7837 65.0214 29.8854L83.9946 37.4515V16.3614Z" fill="#83DDDD" fill-opacity="0.8"/>
<path d="M102.448 8.45264V28.6727C102.448 29.2 102.132 29.6745 101.65 29.8854L83.9946 37.4515V16.3614L102.448 8.45264ZM83.9946 16.3614L64.2226 8.45264V28.6727C64.2224 28.9309 64.298 29.1834 64.44 29.399C64.582 29.6146 64.7841 29.7837 65.0214 29.8854L83.9946 37.4515V16.3614Z" fill="url(#paint13_linear_2811_3783)"/>
</g>
<defs>
<linearGradient id="paint0_linear_2811_3783" x1="19.1128" y1="85.5534" x2="19.1129" y2="108.517" gradientUnits="userSpaceOnUse">
<stop stop-color="#054F77"/>
<stop offset="1" stop-color="#8CFF00"/>
</linearGradient>
<linearGradient id="paint1_linear_2811_3783" x1="-6.65942" y1="109.948" x2="20.3384" y2="109.948" gradientUnits="userSpaceOnUse">
<stop stop-color="#8CFF00"/>
<stop offset="1" stop-color="#83DDC2" stop-opacity="0.61"/>
</linearGradient>
<linearGradient id="paint2_linear_2811_3783" x1="19.1128" y1="27.6708" x2="19.1129" y2="50.6346" gradientUnits="userSpaceOnUse">
<stop stop-color="#054F77"/>
<stop offset="1" stop-color="#8CFF00"/>
</linearGradient>
<linearGradient id="paint3_linear_2811_3783" x1="-6.65942" y1="52.0653" x2="20.3384" y2="52.0653" gradientUnits="userSpaceOnUse">
<stop stop-color="#8CFF00"/>
<stop offset="1" stop-color="#83DDC2" stop-opacity="0.61"/>
</linearGradient>
<linearGradient id="paint4_linear_2811_3783" x1="147.56" y1="85.5534" x2="147.56" y2="108.517" gradientUnits="userSpaceOnUse">
<stop stop-color="#054F77"/>
<stop offset="1" stop-color="#8CFF00"/>
</linearGradient>
<linearGradient id="paint5_linear_2811_3783" x1="121.788" y1="109.948" x2="148.786" y2="109.948" gradientUnits="userSpaceOnUse">
<stop stop-color="#8CFF00"/>
<stop offset="1" stop-color="#83DDC2" stop-opacity="0.61"/>
</linearGradient>
<linearGradient id="paint6_linear_2811_3783" x1="147.56" y1="27.6708" x2="147.56" y2="50.6346" gradientUnits="userSpaceOnUse">
<stop stop-color="#054F77"/>
<stop offset="1" stop-color="#8CFF00"/>
</linearGradient>
<linearGradient id="paint7_linear_2811_3783" x1="121.788" y1="52.0653" x2="148.786" y2="52.0653" gradientUnits="userSpaceOnUse">
<stop stop-color="#8CFF00"/>
<stop offset="1" stop-color="#83DDC2" stop-opacity="0.61"/>
</linearGradient>
<linearGradient id="paint8_linear_2811_3783" x1="83.3355" y1="56.5551" x2="83.3355" y2="79.5189" gradientUnits="userSpaceOnUse">
<stop stop-color="#054F77"/>
<stop offset="1" stop-color="#8CFF00"/>
</linearGradient>
<linearGradient id="paint9_linear_2811_3783" x1="57.5632" y1="80.9496" x2="84.561" y2="80.9496" gradientUnits="userSpaceOnUse">
<stop stop-color="#8CFF00"/>
<stop offset="1" stop-color="#83DDC2" stop-opacity="0.61"/>
</linearGradient>
<linearGradient id="paint10_linear_2811_3783" x1="83.3355" y1="114.552" x2="83.3355" y2="137.516" gradientUnits="userSpaceOnUse">
<stop stop-color="#054F77"/>
<stop offset="1" stop-color="#8CFF00"/>
</linearGradient>
<linearGradient id="paint11_linear_2811_3783" x1="57.5632" y1="138.947" x2="84.561" y2="138.947" gradientUnits="userSpaceOnUse">
<stop stop-color="#8CFF00"/>
<stop offset="1" stop-color="#83DDC2" stop-opacity="0.61"/>
</linearGradient>
<linearGradient id="paint12_linear_2811_3783" x1="83.3355" y1="-1.44274" x2="83.3355" y2="21.5211" gradientUnits="userSpaceOnUse">
<stop stop-color="#054F77"/>
<stop offset="1" stop-color="#8CFF00"/>
</linearGradient>
<linearGradient id="paint13_linear_2811_3783" x1="57.5632" y1="22.9521" x2="84.561" y2="22.9521" gradientUnits="userSpaceOnUse">
<stop stop-color="#8CFF00"/>
<stop offset="1" stop-color="#83DDC2" stop-opacity="0.61"/>
</linearGradient>
</defs>
</svg>
